g default
mtllib ./Pine3_Snow2.mtl
v 0.1912116 1.373606 -0.09004679
v -8.97362E-09 1.373606 -0.2289702
v -0.1912117 1.373606 -0.09004678
v 0.1181754 1.373606 0.1347361
v -0.1181753 1.373606 0.1347361
v -0.3248138 -0.04255034 -0.1334567
v -3.298619E-09 -0.04255034 -0.3694478
v 0.3248138 -0.04255034 -0.1334568
v 0.200746 -0.04255034 0.2483848
v -0.2007459 -0.04255034 0.2483848
v -0.3248138 -0.04255034 -0.1334567
v -8.97362E-09 1.373606 -0.2289702
v -3.298619E-09 -0.04255034 -0.3694478
v -0.1912117 1.373606 -0.09004678
v -0.2007459 -0.04255034 0.2483848
v -0.1912117 1.373606 -0.09004678
v -0.3248138 -0.04255034 -0.1334567
v -0.1181753 1.373606 0.1347361
v 0.200746 -0.04255034 0.2483848
v -0.1181753 1.373606 0.1347361
v -0.2007459 -0.04255034 0.2483848
v 0.1181754 1.373606 0.1347361
v 0.3248138 -0.04255034 -0.1334568
v 0.1181754 1.373606 0.1347361
v 0.200746 -0.04255034 0.2483848
v 0.1912116 1.373606 -0.09004679
v -3.298619E-09 -0.04255034 -0.3694478
v 0.1912116 1.373606 -0.09004679
v 0.3248138 -0.04255034 -0.1334568
v -8.97362E-09 1.373606 -0.2289702
v 1.5 1.092907 -1.788732E-08
v 1.06066 1.433465 -1.06066
v 0 4.531306 0
v 0 1.092907 -1.5
v -1.06066 1.433465 -1.06066
v 0 4.531306 0
v 1.06066 1.433465 1.06066
v 1.5 1.092907 -1.788732E-08
v 0 4.531306 0
v 1.311342E-07 1.092907 1.5
v 1.06066 1.433465 1.06066
v 0 4.531306 0
v -1.06066 1.433465 1.06066
v 1.311342E-07 1.092907 1.5
v 0 4.531306 0
v -1.5 1.092907 6.556708E-08
v -1.06066 1.433465 1.06066
v 0 4.531306 0
v 1.06066 1.433465 -1.06066
v 0 1.092907 -1.5
v 0 4.531306 0
v -1.06066 1.433465 -1.06066
v -1.5 1.092907 6.556708E-08
v 0 4.531306 0
v 5.283088E-08 2.326577 0
v 1.181807 2.206045 -1.409291E-08
v 0.8356638 2.447109 0.8356635
v 5.283088E-08 2.326577 0
v 0.8356638 2.447109 0.8356635
v 1.033168E-07 2.206045 1.181807
v 5.283088E-08 2.326577 0
v 1.033168E-07 2.206045 1.181807
v -0.8356637 2.447109 0.8356637
v 5.283088E-08 2.326577 0
v -0.8356637 2.447109 0.8356637
v -1.181807 2.206045 5.165842E-08
v 5.283088E-08 2.326577 0
v -1.181807 2.206045 5.165842E-08
v -0.8356637 2.447109 -0.8356637
v 5.283088E-08 2.326577 0
v -0.8356637 2.447109 -0.8356637
v 0 2.206045 -1.181807
v -0.8356637 2.447109 -0.8356637
v -1.181807 2.206045 5.165842E-08
v 0 5.055035 0
v 0.8356638 2.447109 -0.8356636
v 0 2.206045 -1.181807
v 0 5.055035 0
v -1.181807 2.206045 5.165842E-08
v -0.8356637 2.447109 0.8356637
v 0 5.055035 0
v -0.8356637 2.447109 0.8356637
v 1.033168E-07 2.206045 1.181807
v 0 5.055035 0
v 1.033168E-07 2.206045 1.181807
v 0.8356638 2.447109 0.8356635
v 0 5.055035 0
v 0.8356638 2.447109 0.8356635
v 1.181807 2.206045 -1.409291E-08
v 0 5.055035 0
v 0 2.206045 -1.181807
v -0.8356637 2.447109 -0.8356637
v 0 5.055035 0
v 1.181807 2.206045 -1.409291E-08
v 0.8356638 2.447109 -0.8356636
v 0 5.055035 0
v 6.705523E-08 1.263186 0
v -1.06066 1.433465 -1.06066
v 0 1.092907 -1.5
v 6.705523E-08 1.263186 0
v -1.5 1.092907 6.556708E-08
v -1.06066 1.433465 -1.06066
v 6.705523E-08 1.263186 0
v -1.06066 1.433465 1.06066
v -1.5 1.092907 6.556708E-08
v 6.705523E-08 1.263186 0
v 1.311342E-07 1.092907 1.5
v -1.06066 1.433465 1.06066
v 6.705523E-08 1.263186 0
v 1.06066 1.433465 1.06066
v 1.311342E-07 1.092907 1.5
v 6.705523E-08 1.263186 0
v 1.5 1.092907 -1.788732E-08
v 1.06066 1.433465 1.06066
v 6.705523E-08 1.263186 0
v 1.06066 1.433465 -1.06066
v 1.5 1.092907 -1.788732E-08
v 6.705523E-08 1.263186 0
v 0 1.092907 -1.5
v 1.06066 1.433465 -1.06066
v 5.283088E-08 2.326577 0
v 0.8356638 2.447109 -0.8356636
v 1.181807 2.206045 -1.409291E-08
v 5.283088E-08 2.326577 0
v 0 2.206045 -1.181807
v 0.8356638 2.447109 -0.8356636
v 4.277047E-08 3.218358 0
v 0.9567593 3.141478 -1.140924E-08
v 0.6765311 3.295238 0.6765308
v 4.277047E-08 3.218358 0
v 0.6765311 3.295238 0.6765308
v 8.364255E-08 3.141478 0.9567593
v 4.277047E-08 3.218358 0
v 8.364255E-08 3.141478 0.9567593
v -0.676531 3.295238 0.676531
v 4.277047E-08 3.218358 0
v -0.676531 3.295238 0.676531
v -0.9567593 3.141478 4.182127E-08
v 4.277047E-08 3.218358 0
v -0.9567593 3.141478 4.182127E-08
v -0.676531 3.295238 -0.676531
v 4.277047E-08 3.218358 0
v -0.676531 3.295238 -0.676531
v 0 3.141478 -0.9567593
v -0.676531 3.295238 -0.676531
v -0.9567593 3.141478 4.182127E-08
v 0 5.328518 0
v 0.6765311 3.295238 -0.6765309
v 0 3.141478 -0.9567593
v 0 5.328518 0
v -0.9567593 3.141478 4.182127E-08
v -0.676531 3.295238 0.676531
v 0 5.328518 0
v -0.676531 3.295238 0.676531
v 8.364255E-08 3.141478 0.9567593
v 0 5.328518 0
v 8.364255E-08 3.141478 0.9567593
v 0.6765311 3.295238 0.6765308
v 0 5.328518 0
v 0.6765311 3.295238 0.6765308
v 0.9567593 3.141478 -1.140924E-08
v 0 5.328518 0
v 0 3.141478 -0.9567593
v -0.676531 3.295238 -0.676531
v 0 5.328518 0
v 0.9567593 3.141478 -1.140924E-08
v 0.6765311 3.295238 -0.6765309
v 0 5.328518 0
v 4.277047E-08 3.218358 0
v 0.6765311 3.295238 -0.6765309
v 0.9567593 3.141478 -1.140924E-08
v 4.277047E-08 3.218358 0
v 0 3.141478 -0.9567593
v 0.6765311 3.295238 -0.6765309
v 3.768401E-08 3.857372 0
v 0.7560711 3.95321 -9.016057E-09
v 0.5346231 4.074718 0.5346229
v 3.768401E-08 3.857372 0
v 0.5346231 4.074718 0.5346229
v 6.609783E-08 3.95321 0.7560711
v 3.768401E-08 3.857372 0
v 6.609783E-08 3.95321 0.7560711
v -0.534623 4.074718 0.534623
v 3.768401E-08 3.857372 0
v -0.534623 4.074718 0.534623
v -0.7560711 3.95321 3.304892E-08
v 3.768401E-08 3.857372 0
v -0.7560711 3.95321 3.304892E-08
v -0.534623 4.074718 -0.534623
v 3.768401E-08 3.857372 0
v -0.534623 4.074718 -0.534623
v 0 3.95321 -0.7560711
v -0.534623 4.074718 -0.534623
v -0.7560711 3.95321 3.304892E-08
v 0 5.716582 0
v 0.5346231 4.074718 -0.5346229
v 0 3.95321 -0.7560711
v 0 5.716582 0
v -0.7560711 3.95321 3.304892E-08
v -0.534623 4.074718 0.534623
v 0 5.716582 0
v -0.534623 4.074718 0.534623
v 6.609783E-08 3.95321 0.7560711
v 0 5.716582 0
v 6.609783E-08 3.95321 0.7560711
v 0.5346231 4.074718 0.5346229
v 0 5.716582 0
v 0.5346231 4.074718 0.5346229
v 0.7560711 3.95321 -9.016057E-09
v 0 5.716582 0
v 0 3.95321 -0.7560711
v -0.534623 4.074718 -0.534623
v 0 5.716582 0
v 0.7560711 3.95321 -9.016057E-09
v 0.5346231 4.074718 -0.5346229
v 0 5.716582 0
v 3.768401E-08 3.857372 0
v 0.5346231 4.074718 -0.5346229
v 0.7560711 3.95321 -9.016057E-09
v 3.768401E-08 3.857372 0
v 0 3.95321 -0.7560711
v 0.5346231 4.074718 -0.5346229
v 2.484034E-08 4.699253 0
v 0.555669 4.654603 -6.626286E-09
v 0.3929173 4.743904 0.3929172
v 2.484034E-08 4.699253 0
v 0.3929173 4.743904 0.3929172
v 4.857812E-08 4.654603 0.555669
v 2.484034E-08 4.699253 0
v 4.857812E-08 4.654603 0.555669
v -0.3929173 4.743904 0.3929173
v 2.484034E-08 4.699253 0
v -0.3929173 4.743904 0.3929173
v -0.555669 4.654603 2.428906E-08
v 2.484034E-08 4.699253 0
v -0.555669 4.654603 2.428906E-08
v -0.3929173 4.743904 -0.3929173
v 2.484034E-08 4.699253 0
v -0.3929173 4.743904 -0.3929173
v 0 4.654603 -0.555669
v -0.3929173 4.743904 -0.3929173
v -0.555669 4.654603 2.428906E-08
v 0 5.924798 0
v 0.3929173 4.743904 -0.3929173
v 0 4.654603 -0.555669
v 0 5.924798 0
v -0.555669 4.654603 2.428906E-08
v -0.3929173 4.743904 0.3929173
v 0 5.924798 0
v -0.3929173 4.743904 0.3929173
v 4.857812E-08 4.654603 0.555669
v 0 5.924798 0
v 4.857812E-08 4.654603 0.555669
v 0.3929173 4.743904 0.3929172
v 0 5.924798 0
v 0.3929173 4.743904 0.3929172
v 0.555669 4.654603 -6.626286E-09
v 0 5.924798 0
v 0 4.654603 -0.555669
v -0.3929173 4.743904 -0.3929173
v 0 5.924798 0
v 0.555669 4.654603 -6.626286E-09
v 0.3929173 4.743904 -0.3929173
v 0 5.924798 0
v 2.484034E-08 4.699253 0
v 0.3929173 4.743904 -0.3929173
v 0.555669 4.654603 -6.626286E-09
v 2.484034E-08 4.699253 0
v 0 4.654603 -0.555669
v 0.3929173 4.743904 -0.3929173
vn 0 1 0
vn 0 1 0
vn 0 1 0
vn 0 1 0
vn 0 1 0
vn 0 -1 0
vn 0 -1 0
vn 0 -1 0
vn 0 -1 0
vn 0 -1 0
vn -0.5859016 0.07999437 -0.8064243
vn -0.5859016 0.07999437 -0.8064243
vn -0.5859016 0.07999437 -0.8064243
vn -0.5859016 0.07999437 -0.8064243
vn -0.9480087 0.07999434 0.3080267
vn -0.9480087 0.07999434 0.3080267
vn -0.9480087 0.07999434 0.3080267
vn -0.9480087 0.07999434 0.3080267
vn 0 0.07999435 0.9967954
vn 0 0.07999435 0.9967954
vn 0 0.07999435 0.9967954
vn 0 0.07999435 0.9967954
vn 0.9480087 0.07999436 0.3080264
vn 0.9480087 0.07999436 0.3080264
vn 0.9480087 0.07999436 0.3080264
vn 0.9480087 0.07999436 0.3080264
vn 0.5859016 0.07999437 -0.8064243
vn 0.5859016 0.07999437 -0.8064243
vn 0.5859016 0.07999437 -0.8064243
vn 0.5859016 0.07999437 -0.8064243
vn 0.8889443 0.3878016 -0.2436969
vn 0.8889443 0.3878016 -0.2436969
vn 0.8889443 0.3878016 -0.2436969
vn -0.243697 0.3878016 -0.8889442
vn -0.243697 0.3878016 -0.8889442
vn -0.243697 0.3878016 -0.8889442
vn 0.8889442 0.3878015 0.243697
vn 0.8889442 0.3878015 0.243697
vn 0.8889442 0.3878015 0.243697
vn 0.2436969 0.3878016 0.8889442
vn 0.2436969 0.3878016 0.8889442
vn 0.2436969 0.3878016 0.8889442
vn -0.2436969 0.3878016 0.8889442
vn -0.2436969 0.3878016 0.8889442
vn -0.2436969 0.3878016 0.8889442
vn -0.8889442 0.3878016 0.2436972
vn -0.8889442 0.3878016 0.2436972
vn -0.8889442 0.3878016 0.2436972
vn 0.2436969 0.3878016 -0.8889442
vn 0.2436969 0.3878016 -0.8889442
vn 0.2436969 0.3878016 -0.8889442
vn -0.8889442 0.3878016 -0.2436971
vn -0.8889442 0.3878016 -0.2436971
vn -0.8889442 0.3878016 -0.2436971
vn -0.09854977 -0.9662724 0.2379195
vn -0.09854977 -0.9662724 0.2379195
vn -0.09854977 -0.9662724 0.2379195
vn 0.2379192 -0.9662724 -0.09854957
vn 0.2379192 -0.9662724 -0.09854957
vn 0.2379192 -0.9662724 -0.09854957
vn -0.2379193 -0.9662724 -0.09854956
vn -0.2379193 -0.9662724 -0.09854956
vn -0.2379193 -0.9662724 -0.09854956
vn 0.09854974 -0.9662724 0.2379194
vn 0.09854974 -0.9662724 0.2379194
vn 0.09854974 -0.9662724 0.2379194
vn 0.09854973 -0.9662724 -0.2379194
vn 0.09854973 -0.9662724 -0.2379194
vn 0.09854973 -0.9662724 -0.2379194
vn -0.2379193 -0.9662724 0.09854958
vn -0.2379193 -0.9662724 0.09854958
vn -0.2379193 -0.9662724 0.09854958
vn -0.8912836 0.3697187 -0.2625292
vn -0.8912836 0.3697187 -0.2625292
vn -0.8912836 0.3697187 -0.2625292
vn 0.2625292 0.3697187 -0.8912836
vn 0.2625292 0.3697187 -0.8912836
vn 0.2625292 0.3697187 -0.8912836
vn -0.8912836 0.3697188 0.2625292
vn -0.8912836 0.3697188 0.2625292
vn -0.8912836 0.3697188 0.2625292
vn -0.262529 0.3697188 0.8912837
vn -0.262529 0.3697188 0.8912837
vn -0.262529 0.3697188 0.8912837
vn 0.2625294 0.3697187 0.8912836
vn 0.2625294 0.3697187 0.8912836
vn 0.2625294 0.3697187 0.8912836
vn 0.8912836 0.3697187 0.2625291
vn 0.8912836 0.3697187 0.2625291
vn 0.8912836 0.3697187 0.2625291
vn -0.262529 0.3697187 -0.8912837
vn -0.262529 0.3697187 -0.8912837
vn -0.262529 0.3697187 -0.8912837
vn 0.8912837 0.3697187 -0.262529
vn 0.8912837 0.3697187 -0.262529
vn 0.8912837 0.3697187 -0.262529
vn -0.2627432 -0.9587083 0.1088319
vn -0.2627432 -0.9587083 0.1088319
vn -0.2627432 -0.9587083 0.1088319
vn 0.1088317 -0.9587082 -0.2627434
vn 0.1088317 -0.9587082 -0.2627434
vn 0.1088317 -0.9587082 -0.2627434
vn 0.1088319 -0.9587082 0.2627434
vn 0.1088319 -0.9587082 0.2627434
vn 0.1088319 -0.9587082 0.2627434
vn -0.2627432 -0.9587083 -0.1088319
vn -0.2627432 -0.9587083 -0.1088319
vn -0.2627432 -0.9587083 -0.1088319
vn 0.2627433 -0.9587083 -0.1088319
vn 0.2627433 -0.9587083 -0.1088319
vn 0.2627433 -0.9587083 -0.1088319
vn -0.1088319 -0.9587082 0.2627434
vn -0.1088319 -0.9587082 0.2627434
vn -0.1088319 -0.9587082 0.2627434
vn -0.1088319 -0.9587082 -0.2627434
vn -0.1088319 -0.9587082 -0.2627434
vn -0.1088319 -0.9587082 -0.2627434
vn 0.2627431 -0.9587083 0.1088319
vn 0.2627431 -0.9587083 0.1088319
vn 0.2627431 -0.9587083 0.1088319
vn -0.09854976 -0.9662724 -0.2379195
vn -0.09854976 -0.9662724 -0.2379195
vn -0.09854976 -0.9662724 -0.2379195
vn 0.2379191 -0.9662725 0.09854957
vn 0.2379191 -0.9662725 0.09854957
vn 0.2379191 -0.9662725 0.09854957
vn -0.07864009 -0.9786581 0.1898528
vn -0.07864009 -0.9786581 0.1898528
vn -0.07864009 -0.9786581 0.1898528
vn 0.1898527 -0.9786581 -0.07863988
vn 0.1898527 -0.9786581 -0.07863988
vn 0.1898527 -0.9786581 -0.07863988
vn -0.1898524 -0.9786582 -0.0786399
vn -0.1898524 -0.9786582 -0.0786399
vn -0.1898524 -0.9786582 -0.0786399
vn 0.07864007 -0.9786581 0.1898528
vn 0.07864007 -0.9786581 0.1898528
vn 0.07864007 -0.9786581 0.1898528
vn 0.07864007 -0.9786581 -0.1898528
vn 0.07864007 -0.9786581 -0.1898528
vn 0.07864007 -0.9786581 -0.1898528
vn -0.1898524 -0.9786582 0.07863992
vn -0.1898524 -0.9786582 0.07863992
vn -0.1898524 -0.9786582 0.07863992
vn -0.8802909 0.3850989 -0.2771044
vn -0.8802909 0.3850989 -0.2771044
vn -0.8802909 0.3850989 -0.2771044
vn 0.2771041 0.3850989 -0.880291
vn 0.2771041 0.3850989 -0.880291
vn 0.2771041 0.3850989 -0.880291
vn -0.8802909 0.3850988 0.2771044
vn -0.8802909 0.3850988 0.2771044
vn -0.8802909 0.3850988 0.2771044
vn -0.277104 0.3850988 0.880291
vn -0.277104 0.3850988 0.880291
vn -0.277104 0.3850988 0.880291
vn 0.2771043 0.3850989 0.8802909
vn 0.2771043 0.3850989 0.8802909
vn 0.2771043 0.3850989 0.8802909
vn 0.8802909 0.3850988 0.2771043
vn 0.8802909 0.3850988 0.2771043
vn 0.8802909 0.3850988 0.2771043
vn -0.2771041 0.3850988 -0.880291
vn -0.2771041 0.3850988 -0.880291
vn -0.2771041 0.3850988 -0.880291
vn 0.880291 0.3850988 -0.2771043
vn 0.880291 0.3850988 -0.2771043
vn 0.880291 0.3850988 -0.2771043
vn -0.07864007 -0.9786581 -0.1898528
vn -0.07864007 -0.9786581 -0.1898528
vn -0.07864007 -0.9786581 -0.1898528
vn 0.1898522 -0.9786582 0.07863988
vn 0.1898522 -0.9786582 0.07863988
vn 0.1898522 -0.9786582 0.07863988
vn 0.1211706 -0.9559227 0.2674502
vn 0.1211706 -0.9559227 0.2674502
vn 0.1211706 -0.9559227 0.2674502
vn 0.2674501 -0.9559227 0.1211709
vn 0.2674501 -0.9559227 0.1211709
vn 0.2674501 -0.9559227 0.1211709
vn -0.2674501 -0.9559226 0.1211709
vn -0.2674501 -0.9559226 0.1211709
vn -0.2674501 -0.9559226 0.1211709
vn -0.1211706 -0.9559227 0.2674501
vn -0.1211706 -0.9559227 0.2674501
vn -0.1211706 -0.9559227 0.2674501
vn -0.1211705 -0.9559227 -0.2674501
vn -0.1211705 -0.9559227 -0.2674501
vn -0.1211705 -0.9559227 -0.2674501
vn -0.2674501 -0.9559226 -0.1211708
vn -0.2674501 -0.9559226 -0.1211708
vn -0.2674501 -0.9559226 -0.1211708
vn -0.882444 0.3783608 -0.2795276
vn -0.882444 0.3783608 -0.2795276
vn -0.882444 0.3783608 -0.2795276
vn 0.2795279 0.3783606 -0.882444
vn 0.2795279 0.3783606 -0.882444
vn 0.2795279 0.3783606 -0.882444
vn -0.8824441 0.3783607 0.2795275
vn -0.8824441 0.3783607 0.2795275
vn -0.8824441 0.3783607 0.2795275
vn -0.2795275 0.3783605 0.8824441
vn -0.2795275 0.3783605 0.8824441
vn -0.2795275 0.3783605 0.8824441
vn 0.2795279 0.3783606 0.882444
vn 0.2795279 0.3783606 0.882444
vn 0.2795279 0.3783606 0.882444
vn 0.8824441 0.3783608 0.2795276
vn 0.8824441 0.3783608 0.2795276
vn 0.8824441 0.3783608 0.2795276
vn -0.2795275 0.3783606 -0.8824441
vn -0.2795275 0.3783606 -0.8824441
vn -0.2795275 0.3783606 -0.8824441
vn 0.8824441 0.3783608 -0.2795276
vn 0.8824441 0.3783608 -0.2795276
vn 0.8824441 0.3783608 -0.2795276
vn 0.1211706 -0.9559227 -0.2674502
vn 0.1211706 -0.9559227 -0.2674502
vn 0.1211706 -0.9559227 -0.2674502
vn 0.26745 -0.9559226 -0.1211709
vn 0.26745 -0.9559226 -0.1211709
vn 0.26745 -0.9559226 -0.1211709
vn -0.07863887 -0.9786581 0.1898533
vn -0.07863887 -0.9786581 0.1898533
vn -0.07863887 -0.9786581 0.1898533
vn 0.1898526 -0.9786582 -0.07863884
vn 0.1898526 -0.9786582 -0.07863884
vn 0.1898526 -0.9786582 -0.07863884
vn -0.1898521 -0.9786583 -0.07863884
vn -0.1898521 -0.9786583 -0.07863884
vn -0.1898521 -0.9786583 -0.07863884
vn 0.07863885 -0.9786581 0.1898533
vn 0.07863885 -0.9786581 0.1898533
vn 0.07863885 -0.9786581 0.1898533
vn 0.07863778 -0.9786582 -0.1898533
vn 0.07863778 -0.9786582 -0.1898533
vn 0.07863778 -0.9786582 -0.1898533
vn -0.1898521 -0.9786583 0.07863887
vn -0.1898521 -0.9786583 0.07863887
vn -0.1898521 -0.9786583 0.07863887
vn -0.8802907 0.3850991 -0.2771044
vn -0.8802907 0.3850991 -0.2771044
vn -0.8802907 0.3850991 -0.2771044
vn 0.2771052 0.3850987 -0.8802907
vn 0.2771052 0.3850987 -0.8802907
vn 0.2771052 0.3850987 -0.8802907
vn -0.8802908 0.3850989 0.2771043
vn -0.8802908 0.3850989 0.2771043
vn -0.8802908 0.3850989 0.2771043
vn -0.2771051 0.3850986 0.8802907
vn -0.2771051 0.3850986 0.8802907
vn -0.2771051 0.3850986 0.8802907
vn 0.2771052 0.3850987 0.8802907
vn 0.2771052 0.3850987 0.8802907
vn 0.2771052 0.3850987 0.8802907
vn 0.8802908 0.385099 0.2771044
vn 0.8802908 0.385099 0.2771044
vn 0.8802908 0.385099 0.2771044
vn -0.2771052 0.3850987 -0.8802907
vn -0.2771052 0.3850987 -0.8802907
vn -0.2771052 0.3850987 -0.8802907
vn 0.8802909 0.3850989 -0.2771043
vn 0.8802909 0.3850989 -0.2771043
vn 0.8802909 0.3850989 -0.2771043
vn -0.07863887 -0.9786581 -0.1898533
vn -0.07863887 -0.9786581 -0.1898533
vn -0.07863887 -0.9786581 -0.1898533
vn 0.1898526 -0.9786582 0.07863883
vn 0.1898526 -0.9786582 0.07863883
vn 0.1898526 -0.9786582 0.07863883
vt 0.6694852 0.6435046
vt 0.6977619 0.6057671
vt 0.7435146 0.6201816
vt 0.6977619 0.6812422
vt 0.7435146 0.6668277
vt 0.6694852 0.6567562
vt 0.5917646 0.6812422
vt 0.5437306 0.617137
vt 0.5917646 0.5530317
vt 0.6694852 0.5775177
vt 0.7888916 0.6812422
vt 0.7239777 0.9616334
vt 0.7071713 0.6812422
vt 0.772085 0.9616334
vt 0.9523323 0.6812423
vt 0.8874185 0.9616334
vt 0.8706119 0.6812423
vt 0.9355257 0.9616334
vt 0.6254509 0.6812422
vt 0.5605371 0.9616334
vt 0.5437306 0.6812422
vt 0.6086442 0.9616334
vt 0.7888916 0.9616334
vt 0.8538053 0.6812423
vt 0.8706119 0.9616334
vt 0.805698 0.6812423
vt 0.7071713 0.6812422
vt 0.6422574 0.9616334
vt 0.6254509 0.6812422
vt 0.6903646 0.9616334
vt 0.7048973 0.4318082
vt 0.6711042 0.4015528
vt 0.7505292 0.2952645
vt 0.7048973 0.2952645
vt 0.6711042 0.265009
vt 0.7505292 0.1587209
vt 0.7505292 0.4266387
vt 0.7048973 0.4318082
vt 0.7505292 0.2952645
vt 0.5957841 0.3257326
vt 0.561991 0.2954772
vt 0.641416 0.189189
vt 0.641416 0.3205631
vt 0.5957841 0.3257326
vt 0.641416 0.189189
vt 0.7843223 0.2952646
vt 0.8299541 0.3004341
vt 0.8299541 0.4318082
vt 0.7505292 0.290095
vt 0.7048973 0.2952645
vt 0.7505292 0.1587209
vt 0.7505292 0.3255199
vt 0.7843223 0.2952646
vt 0.8299541 0.4318082
vt 0.7749104 0.2751803
vt 0.757106 0.2333934
vt 0.7927147 0.2333934
vt 0.7749104 0.2751803
vt 0.7927147 0.2333934
vt 0.8178939 0.2578716
vt 0.7749104 0.2751803
vt 0.8178939 0.2578716
vt 0.8178939 0.2924891
vt 0.7749104 0.2751803
vt 0.8178939 0.2924891
vt 0.7927147 0.3169672
vt 0.7749104 0.2751803
vt 0.7927147 0.3169672
vt 0.757106 0.3169672
vt 0.7749104 0.2751803
vt 0.757106 0.3169672
vt 0.7319268 0.292489
vt 0.8134356 0.2079523
vt 0.7778471 0.2116907
vt 0.8134356 0.09884131
vt 0.561991 0.09882724
vt 0.5893089 0.07633972
vt 0.6248974 0.189189
vt 0.7778471 0.2116907
vt 0.7505292 0.1892031
vt 0.8134356 0.09884131
vt 0.8994027 0.2915262
vt 0.8638141 0.2952645
vt 0.8994027 0.1824152
vt 0.8638141 0.2952645
vt 0.8364963 0.272777
vt 0.8994027 0.1824152
vt 0.8928605 0.4280698
vt 0.857272 0.4318082
vt 0.8928605 0.3189589
vt 0.5893089 0.07633972
vt 0.6248974 0.08007801
vt 0.6248974 0.189189
vt 0.857272 0.4318082
vt 0.8299541 0.4093207
vt 0.8928605 0.3189589
vt 0.5979453 0.4004731
vt 0.6525018 0.3785042
vt 0.6525018 0.4224421
vt 0.5979453 0.4004731
vt 0.6205434 0.3474354
vt 0.6525018 0.3785042
vt 0.5979453 0.4004731
vt 0.5753472 0.3474354
vt 0.6205434 0.3474354
vt 0.5979453 0.4004731
vt 0.5433887 0.3785042
vt 0.5753472 0.3474354
vt 0.5979453 0.4004731
vt 0.5433887 0.4224421
vt 0.5433887 0.3785042
vt 0.5979453 0.4004731
vt 0.5753472 0.4535109
vt 0.5433887 0.4224421
vt 0.5979453 0.4004731
vt 0.6205433 0.4535109
vt 0.5753472 0.4535109
vt 0.5979453 0.4004731
vt 0.6525018 0.4224421
vt 0.6205433 0.4535109
vt 0.7749104 0.2751803
vt 0.7319269 0.2578716
vt 0.757106 0.2333934
vt 0.7749104 0.2751803
vt 0.7319268 0.292489
vt 0.7319269 0.2578716
vt 0.8526922 0.1702883
vt 0.8874906 0.184301
vt 0.8671062 0.2041179
vt 0.8526922 0.1702883
vt 0.8671062 0.2041179
vt 0.8382783 0.204118
vt 0.8526922 0.1702883
vt 0.8382783 0.204118
vt 0.8178939 0.184301
vt 0.8526922 0.1702883
vt 0.8178939 0.184301
vt 0.8178939 0.1562757
vt 0.8526922 0.1702883
vt 0.8178939 0.1562757
vt 0.8382783 0.1364588
vt 0.8526922 0.1702883
vt 0.8382783 0.1364588
vt 0.8671062 0.1364588
vt 0.4231147 0.8085531
vt 0.3947273 0.8099296
vt 0.4231147 0.722838
vt 0.3790263 0.6270077
vt 0.4014176 0.6099887
vt 0.4298049 0.6970804
vt 0.3947273 0.8099296
vt 0.372336 0.7929106
vt 0.4231147 0.722838
vt 0.4165725 0.9450967
vt 0.3881851 0.9464734
vt 0.4165725 0.8593817
vt 0.3881851 0.9464734
vt 0.3657938 0.9294543
vt 0.4165725 0.8593817
vt 0.1440375 0.6033133
vt 0.1664288 0.5862943
vt 0.1948162 0.673386
vt 0.4014176 0.6099887
vt 0.4298049 0.6113652
vt 0.4298049 0.6970804
vt 0.1664288 0.5862943
vt 0.1948162 0.5876709
vt 0.1948162 0.673386
vt 0.8526922 0.1702883
vt 0.8874906 0.1562757
vt 0.8874906 0.184301
vt 0.8526922 0.1702883
vt 0.8671062 0.1364588
vt 0.8874906 0.1562757
vt 0.845393 0.1097252
vt 0.8340026 0.1364588
vt 0.8178939 0.1207986
vt 0.845393 0.1097252
vt 0.8178939 0.1207986
vt 0.8178939 0.09865177
vt 0.845393 0.1097252
vt 0.8178939 0.09865177
vt 0.8340026 0.08299166
vt 0.845393 0.1097252
vt 0.8340026 0.08299166
vt 0.8567835 0.08299166
vt 0.845393 0.1097252
vt 0.8567835 0.08299166
vt 0.8728921 0.09865177
vt 0.845393 0.1097252
vt 0.8728921 0.09865177
vt 0.8728921 0.1207986
vt 0.2234625 0.5567447
vt 0.2412316 0.5433887
vt 0.263658 0.6135064
vt 0.263658 0.5567447
vt 0.2814271 0.5433887
vt 0.3038536 0.6135064
vt 0.2412316 0.5433887
vt 0.263658 0.5445944
vt 0.263658 0.6135064
vt 0.1380262 0.7026484
vt 0.1155998 0.7038541
vt 0.1380262 0.6337364
vt 0.1155998 0.7038541
vt 0.09783071 0.6904981
vt 0.1380262 0.6337364
vt 0.1380262 0.6325307
vt 0.1155998 0.6337364
vt 0.1380262 0.5636185
vt 0.2814271 0.5433887
vt 0.3038536 0.5445944
vt 0.3038536 0.6135064
vt 0.1155998 0.6337364
vt 0.09783071 0.6203804
vt 0.1380262 0.5636185
vt 0.845393 0.1097252
vt 0.8567835 0.1364588
vt 0.8340026 0.1364588
vt 0.845393 0.1097252
vt 0.8728921 0.1207986
vt 0.8567835 0.1364588
vt 0.8944684 0.3467716
vt 0.9146787 0.3386333
vt 0.9146787 0.35491
vt 0.8944684 0.3467716
vt 0.9146787 0.35491
vt 0.9028398 0.3664193
vt 0.8944684 0.3467716
vt 0.9028398 0.3664193
vt 0.8860971 0.3664193
vt 0.8944684 0.3467716
vt 0.8860971 0.3664193
vt 0.8742582 0.35491
vt 0.8944684 0.3467716
vt 0.8742582 0.35491
vt 0.8742582 0.3386333
vt 0.8944684 0.3467716
vt 0.8742582 0.3386333
vt 0.8860971 0.327124
vt 0.3790263 0.5692917
vt 0.3920308 0.5594074
vt 0.4085177 0.6099887
vt 0.4085176 0.5692917
vt 0.4215221 0.5594074
vt 0.438009 0.6099887
vt 0.3920308 0.5594074
vt 0.4085177 0.5602069
vt 0.4085177 0.6099887
vt 0.1438407 0.8395983
vt 0.1273538 0.8403977
vt 0.1438407 0.7898164
vt 0.1273538 0.8403977
vt 0.1143493 0.8305134
vt 0.1438407 0.7898164
vt 0.1438407 0.789017
vt 0.1273538 0.7898164
vt 0.1438407 0.7392352
vt 0.4215221 0.5594074
vt 0.438009 0.5602069
vt 0.438009 0.6099887
vt 0.1273538 0.7898164
vt 0.1143493 0.779932
vt 0.1438407 0.7392352
vt 0.8944684 0.3467716
vt 0.9028398 0.327124
vt 0.9146787 0.3386333
vt 0.8944684 0.3467716
vt 0.8860971 0.327124
vt 0.9028398 0.327124
usemtl Trees
usemap Trees
f 3/3/3 2/2/2 1/1/1
f 1/1/1 4/4/4 3/3/3
f 4/4/4 5/5/5 3/3/3
f 8/8/8 7/7/7 6/6/6
f 6/6/6 9/9/9 8/8/8
f 6/6/6 10/10/10 9/9/9
f 13/13/13 12/12/12 11/11/11
f 12/12/12 14/14/14 11/11/11
f 17/17/17 16/16/16 15/15/15
f 16/16/16 18/18/18 15/15/15
f 21/21/21 20/20/20 19/19/19
f 20/20/20 22/22/22 19/19/19
f 25/25/25 24/24/24 23/23/23
f 24/24/24 26/26/26 23/23/23
f 29/29/29 28/28/28 27/27/27
f 28/28/28 30/30/30 27/27/27
f 33/33/33 32/32/32 31/31/31
f 36/36/36 35/35/35 34/34/34
f 39/39/39 38/38/38 37/37/37
f 42/42/42 41/41/41 40/40/40
f 45/45/45 44/44/44 43/43/43
f 48/48/48 47/47/47 46/46/46
f 51/51/51 50/50/50 49/49/49
f 54/54/54 53/53/53 52/52/52
f 57/57/57 56/56/56 55/55/55
f 60/60/60 59/59/59 58/58/58
f 63/63/63 62/62/62 61/61/61
f 66/66/66 65/65/65 64/64/64
f 69/69/69 68/68/68 67/67/67
f 72/72/72 71/71/71 70/70/70
f 75/75/75 74/74/74 73/73/73
f 78/78/78 77/77/77 76/76/76
f 81/81/81 80/80/80 79/79/79
f 84/84/84 83/83/83 82/82/82
f 87/87/87 86/86/86 85/85/85
f 90/90/90 89/89/89 88/88/88
f 93/93/93 92/92/92 91/91/91
f 96/96/96 95/95/95 94/94/94
f 99/99/99 98/98/98 97/97/97
f 102/102/102 101/101/101 100/100/100
f 105/105/105 104/104/104 103/103/103
f 108/108/108 107/107/107 106/106/106
f 111/111/111 110/110/110 109/109/109
f 114/114/114 113/113/113 112/112/112
f 117/117/117 116/116/116 115/115/115
f 120/120/120 119/119/119 118/118/118
f 123/123/123 122/122/122 121/121/121
f 126/126/126 125/125/125 124/124/124
f 129/129/129 128/128/128 127/127/127
f 132/132/132 131/131/131 130/130/130
f 135/135/135 134/134/134 133/133/133
f 138/138/138 137/137/137 136/136/136
f 141/141/141 140/140/140 139/139/139
f 144/144/144 143/143/143 142/142/142
f 147/147/147 146/146/146 145/145/145
f 150/150/150 149/149/149 148/148/148
f 153/153/153 152/152/152 151/151/151
f 156/156/156 155/155/155 154/154/154
f 159/159/159 158/158/158 157/157/157
f 162/162/162 161/161/161 160/160/160
f 165/165/165 164/164/164 163/163/163
f 168/168/168 167/167/167 166/166/166
f 171/171/171 170/170/170 169/169/169
f 174/174/174 173/173/173 172/172/172
f 177/177/177 176/176/176 175/175/175
f 180/180/180 179/179/179 178/178/178
f 183/183/183 182/182/182 181/181/181
f 186/186/186 185/185/185 184/184/184
f 189/189/189 188/188/188 187/187/187
f 192/192/192 191/191/191 190/190/190
f 195/195/195 194/194/194 193/193/193
f 198/198/198 197/197/197 196/196/196
f 201/201/201 200/200/200 199/199/199
f 204/204/204 203/203/203 202/202/202
f 207/207/207 206/206/206 205/205/205
f 210/210/210 209/209/209 208/208/208
f 213/213/213 212/212/212 211/211/211
f 216/216/216 215/215/215 214/214/214
f 219/219/219 218/218/218 217/217/217
f 222/222/222 221/221/221 220/220/220
f 225/225/225 224/224/224 223/223/223
f 228/228/228 227/227/227 226/226/226
f 231/231/231 230/230/230 229/229/229
f 234/234/234 233/233/233 232/232/232
f 237/237/237 236/236/236 235/235/235
f 240/240/240 239/239/239 238/238/238
f 243/243/243 242/242/242 241/241/241
f 246/246/246 245/245/245 244/244/244
f 249/249/249 248/248/248 247/247/247
f 252/252/252 251/251/251 250/250/250
f 255/255/255 254/254/254 253/253/253
f 258/258/258 257/257/257 256/256/256
f 261/261/261 260/260/260 259/259/259
f 264/264/264 263/263/263 262/262/262
f 267/267/267 266/266/266 265/265/265
f 270/270/270 269/269/269 268/268/268
