# Blender v2.76 (sub 0) OBJ File: ''
# www.blender.org
mtllib IceShard2.mtl
o default
v 0.000000 -0.158976 0.074209
v 0.052473 -0.158976 0.052473
v -0.000000 -0.385377 -0.000000
v 0.052473 -0.158976 0.052473
v 0.074209 -0.158976 -0.000000
v -0.000000 -0.385377 -0.000000
v 0.074209 -0.158976 -0.000000
v 0.052473 -0.158976 -0.052474
v -0.000000 -0.385377 -0.000000
v 0.052473 -0.158976 -0.052474
v 0.009132 -0.158976 -0.054175
v -0.000000 -0.385377 -0.000000
v 0.009132 -0.158976 -0.054175
v -0.043341 -0.228674 -0.032440
v -0.000000 -0.385377 -0.000000
v -0.043341 -0.228674 -0.032440
v -0.054277 -0.272503 -0.000000
v -0.000000 -0.385377 -0.000000
v -0.054277 -0.272503 -0.000000
v -0.052473 -0.208636 0.052473
v -0.000000 -0.385377 -0.000000
v -0.052473 -0.208636 0.052473
v 0.000000 -0.158976 0.074209
v -0.000000 -0.385377 -0.000000
v 0.000000 0.004021 0.104947
v 0.058392 -0.009171 0.067795
v 0.000000 -0.158976 0.074209
v 0.052473 -0.158976 0.052473
v 0.058392 -0.009171 0.067795
v 0.104947 -0.039731 -0.000000
v 0.052473 -0.158976 0.052473
v 0.074209 -0.158976 -0.000000
v 0.104947 -0.039731 -0.000000
v 0.074209 0.000000 -0.074209
v 0.074209 -0.158976 -0.000000
v 0.052473 -0.158976 -0.052474
v 0.074209 0.000000 -0.074209
v 0.009132 0.000000 -0.084913
v 0.052473 -0.158976 -0.052474
v 0.009132 -0.158976 -0.054175
v 0.009132 0.000000 -0.084913
v -0.065077 0.035428 -0.054175
v 0.009132 -0.158976 -0.054175
v -0.043341 -0.228674 -0.032440
v -0.065077 0.035428 -0.054175
v -0.104947 0.083010 -0.000000
v -0.043341 -0.228674 -0.032440
v -0.054277 -0.272503 -0.000000
v -0.104947 0.083010 -0.000000
v -0.074209 0.035428 0.074209
v -0.054277 -0.272503 -0.000000
v -0.052473 -0.208636 0.052473
v -0.074209 0.035428 0.074209
v 0.000000 0.004021 0.104947
v -0.052473 -0.208636 0.052473
v 0.000000 -0.158976 0.074209
v 0.000000 0.272503 0.074209
v 0.052473 0.192607 0.052474
v 0.000000 0.004021 0.104947
v 0.058392 -0.009171 0.067795
v 0.052473 0.192607 0.052474
v 0.074209 0.192607 0.000000
v 0.058392 -0.009171 0.067795
v 0.104947 -0.039731 -0.000000
v 0.074209 0.192607 0.000000
v 0.052473 0.192607 -0.052473
v 0.104947 -0.039731 -0.000000
v 0.074209 0.000000 -0.074209
v 0.052473 0.192607 -0.052473
v 0.009132 0.241713 -0.054175
v 0.074209 0.000000 -0.074209
v 0.009132 0.000000 -0.084913
v 0.009132 0.241713 -0.054175
v -0.043341 0.248026 -0.032440
v 0.009132 0.000000 -0.084913
v -0.065077 0.035428 -0.054175
v -0.043341 0.248026 -0.032440
v -0.074209 0.222134 0.000000
v -0.065077 0.035428 -0.054175
v -0.104947 0.083010 -0.000000
v -0.074209 0.222134 0.000000
v -0.052473 0.248412 0.052474
v -0.104947 0.083010 -0.000000
v -0.074209 0.035428 0.074209
v -0.052473 0.248412 0.052474
v 0.000000 0.272503 0.074209
v -0.074209 0.035428 0.074209
v 0.000000 0.004021 0.104947
v 0.052473 0.192607 0.052474
v 0.000000 0.272503 0.074209
v -0.000000 0.385377 0.000000
v 0.074209 0.192607 0.000000
v 0.052473 0.192607 0.052474
v -0.000000 0.385377 0.000000
v 0.052473 0.192607 -0.052473
v 0.074209 0.192607 0.000000
v -0.000000 0.385377 0.000000
v 0.009132 0.241713 -0.054175
v 0.052473 0.192607 -0.052473
v -0.000000 0.385377 0.000000
v -0.043341 0.248026 -0.032440
v 0.009132 0.241713 -0.054175
v -0.000000 0.385377 0.000000
v -0.074209 0.222134 0.000000
v -0.043341 0.248026 -0.032440
v -0.000000 0.385377 0.000000
v -0.052473 0.248412 0.052474
v -0.074209 0.222134 0.000000
v -0.000000 0.385377 0.000000
v 0.000000 0.272503 0.074209
v -0.052473 0.248412 0.052474
v -0.000000 0.385377 0.000000
vt 0.702135 0.512285
vt 0.702135 0.579005
vt 0.990000 0.512285
vt 0.300260 0.978001
vt 0.297644 0.911333
vt 0.010000 0.922618
vt 0.295028 0.844665
vt 0.705211 0.654280
vt 0.700995 0.709227
vt 0.987128 0.742827
vt 0.784250 0.782530
vt 0.010000 0.156168
vt 0.067399 0.197466
vt 0.220795 0.154693
vt 0.844031 0.320831
vt 0.757959 0.381142
vt 0.987128 0.331811
vt 0.765277 0.445566
vt 0.494887 0.512285
vt 0.511661 0.586531
vt 0.491350 0.990000
vt 0.449145 0.905389
vt 0.495924 0.809126
vt 0.505782 0.611261
vt 0.499452 0.693763
vt 0.447320 0.784395
vt 0.458920 0.222197
vt 0.393328 0.286249
vt 0.791622 0.275442
vt 0.446432 0.384956
vt 0.454954 0.417930
vt 0.153518 0.512285
vt 0.255104 0.579005
vt 0.746947 0.960476
vt 0.744331 0.893808
vt 0.741716 0.827140
vt 0.259490 0.620081
vt 0.193020 0.670250
vt 0.179911 0.736160
vt 0.187283 0.229072
vt 0.216952 0.272716
vt 0.178533 0.336683
vt 0.184148 0.445566
vt 0.849538 0.984108
vt 0.989247 0.884199
vt 0.010000 0.667853
vt 0.010000 0.256837
vt 0.010000 0.512285
vn 0.366200 -0.289800 0.884200
vn 0.884200 -0.289800 0.366300
vn 0.884200 -0.289900 0.366300
vn 0.884200 -0.289800 -0.366300
vn 0.038100 -0.234000 -0.971500
vn -0.098600 -0.227800 -0.968700
vn -0.673800 -0.323700 -0.664200
vn -0.673700 -0.323800 -0.664300
vn -0.786900 -0.378400 0.487500
vn -0.098300 -0.310000 0.945700
vn 0.451700 -0.138400 0.881400
vn 0.451600 -0.138300 0.881400
vn 0.451700 -0.138300 0.881400
vn 0.844300 -0.144400 0.516100
vn 0.844200 -0.144400 0.516100
vn 0.881600 -0.199700 -0.427700
vn 0.881500 -0.199700 -0.427800
vn 0.881600 -0.199700 -0.427800
vn 0.112000 -0.169300 -0.979200
vn 0.112100 -0.169200 -0.979200
vn -0.348400 -0.133000 -0.927900
vn -0.348300 -0.133000 -0.927900
vn -0.858800 -0.117900 -0.498600
vn -0.858800 -0.117800 -0.498600
vn -0.858700 -0.117800 -0.498700
vn -0.957000 -0.125000 0.261800
vn -0.956900 -0.125100 0.261900
vn -0.957000 -0.125000 0.261900
vn -0.361900 -0.138200 0.921900
vn -0.362000 -0.138200 0.921900
vn 0.524800 0.089500 0.846500
vn 0.875800 0.090700 0.474200
vn 0.875700 0.090700 0.474200
vn 0.929800 0.132400 -0.343500
vn 0.929800 0.132400 -0.343600
vn 0.929700 0.132400 -0.343600
vn 0.169200 0.126600 -0.977400
vn -0.344600 0.124000 -0.930500
vn -0.746700 0.151400 -0.647700
vn -0.746600 0.151400 -0.647800
vn -0.902300 0.159200 0.400600
vn -0.374200 0.117100 0.919900
vn -0.374300 0.117200 0.919900
vn 0.763600 0.354700 0.539600
vn 0.870500 0.335000 0.360600
vn 0.870500 0.335100 0.360500
vn 0.870500 0.335100 0.360600
vn 0.870500 0.335100 -0.360600
vn 0.421800 0.343300 -0.839200
vn -0.330700 0.314500 -0.889800
vn -0.802400 0.364700 -0.472400
vn -0.897500 0.408000 0.167500
vn -0.897500 0.408000 0.167400
vn -0.513400 0.471400 0.717100
usemtl lighting2
s 1
f 1/1/1 2/2/1 3/3/1
f 4/4/2 5/5/2 6/6/3
f 7/5/4 8/7/4 9/6/4
f 10/8/5 11/9/5 12/10/5
f 13/9/6 14/11/6 15/10/6
f 16/12/7 17/13/8 18/14/8
f 19/15/9 20/16/9 21/17/9
f 22/18/10 23/1/10 24/3/10
f 25/19/11 26/20/12 27/1/13
f 26/20/12 28/2/12 27/1/13
f 29/21/14 30/22/15 31/4/14
f 30/22/15 32/5/14 31/4/14
f 33/22/16 34/23/17 35/5/17
f 34/23/17 36/7/18 35/5/17
f 37/24/19 38/25/20 39/8/19
f 38/25/20 40/9/20 39/8/19
f 41/25/21 42/26/22 43/9/21
f 42/26/22 44/11/22 43/9/21
f 45/27/23 46/28/24 47/29/25
f 46/28/24 48/15/24 47/29/25
f 49/28/26 50/30/27 51/15/26
f 50/30/27 52/16/28 51/15/26
f 53/31/29 54/19/30 55/18/30
f 54/19/30 56/1/30 55/18/30
f 57/32/31 58/33/31 59/19/31
f 58/33/31 60/20/31 59/19/31
f 61/34/32 62/35/33 63/21/33
f 62/35/33 64/22/33 63/21/33
f 65/35/34 66/36/35 67/22/36
f 66/36/35 68/23/36 67/22/36
f 69/37/37 70/38/37 71/24/37
f 70/38/37 72/25/37 71/24/37
f 73/38/38 74/39/38 75/25/38
f 74/39/38 76/26/38 75/25/38
f 77/40/39 78/41/39 79/27/40
f 78/41/39 80/28/40 79/27/40
f 81/41/41 82/42/41 83/28/41
f 82/42/41 84/30/41 83/28/41
f 85/43/42 86/32/43 87/31/43
f 86/32/43 88/19/43 87/31/43
f 89/34/44 90/44/44 91/45/44
f 92/35/45 93/34/46 94/45/47
f 95/36/48 96/35/48 97/45/48
f 98/38/49 99/37/49 100/46/49
f 101/39/50 102/38/50 103/46/50
f 104/41/51 105/40/51 106/47/51
f 107/42/52 108/41/52 109/47/53
f 110/32/54 111/43/54 112/48/54
